[
  {
    "id": "5ac6be6b-8064-4159-9de6-89178a9f8a54",
    "firstName": "Matt",
    "lastName":"Hansen"
  },
  {
    "id": "4b912da3-66aa-45c1-a87f-9f79a256e570",
    "firstName": "Brad",
    "lastName":"Lunsford"
  },
  {
    "id": "8ef0c795-42d4-439d-962e-75afe957e069",
    "firstName": "Jeremy",
    "lastName":"Kane"
  },
  {
    "id": "991a6e9f-e5a2-4f54-a285-06cdaced50c3",
    "firstName": "Gartrell",
    "lastName":"Milam"
  },
  {
    "id": "028795fd-fabe-499d-92b8-fc52e7a17983",
    "firstName": "Kelley",
    "lastName":"Hauser"
  },
  {
    "id": "491989c4-c660-4e1d-a805-39a561885847",
    "firstName": "Randall",
    "lastName":"Tombaugh"
  },
  {
    "id": "5d21d684-bc03-4ca9-8c36-8526b4b9d55a",
    "firstName": "Laura",
    "lastName":"Wainwright"
  },
  {
    "id": "6caa84e3-03ad-4456-8a5e-1de96e60f31e",
    "firstName": "Erik",
    "lastName":"Devlin"
  },
  {
    "id": "273a4e75-5502-4bbf-afd5-89d14505d88e",
    "firstName": "Morgan",
    "lastName":"Atkins"
  },
  {
    "id": "7c6c672d-8a4b-4beb-8808-9be7530e503e",
    "firstName": "Blake",
    "lastName":"Kingsburry"
  },
  {
    "id": "2d74b176-564e-4ac9-b356-d231174a0a3a",
    "firstName": "Jay",
    "lastName":"Dodson"
  },
  {
    "id": "c55a3750-d61c-4ab5-9399-1c98dfc0e82f",
    "firstName": "Brad",
    "lastName":"Martin"
  },
  {
    "id": "9dd2aea2-1e08-484a-bd04-71961e65e1ca",
    "firstName": "Kara",
    "lastName":"Jones"
  },
  {
    "id": "943a54a7-d257-47df-b9f2-187c5317c325",
    "firstName": "Brandon",
    "lastName":"Bottomley"
  },
  {
    "id": "e8568dcc-cb4b-45c6-95fe-9ac259636d48",
    "firstName": "Ashlee",
    "lastName":"Sharp"
  },
  {
    "id": "aaae95c5-ff81-4411-94a9-5c29f70f6c46",
    "firstName": "Jessie",
    "lastName":"Soderquist"
  },
  {
    "id": "8f0f41b3-5fab-4477-a435-24059a92b4e6",
    "firstName": "Tom",
    "lastName":"Jones"
  },
  {
    "id": "7d84a65c-2d62-4618-a3d2-dedbba9faaa8",
    "firstName": "Jon",
    "lastName":"Kimball"
  },
  {
    "id": "1eb9f4c7-30a0-4f7d-93e9-d59cd69218e1",
    "firstName": "Greg",
    "lastName":"Hana"
  },
  {
    "id": "05753320-6b48-4ae8-9741-8296fcc6ab63",
    "firstName": "Ashley",
    "lastName":"Goodman"
  }
]
